{
    "name": "Capacity",
    "fields": [
        {
            "fieldName": "description",
            "fieldType": "String",
            "fieldValidateRules": [
                "required"
            ]
        }
    ],
    "relationships": [
        {
            "relationshipType": "one-to-many",
            "relationshipName": "idcapacity",
            "otherEntityName": "vehicle",
            "otherEntityRelationshipName": "capacity"
        }
    ],
    "changelogDate": "20180820153633",
    "entityTableName": "capacity",
    "dto": "no",
    "pagination": "no",
    "service": "serviceClass",
    "jpaMetamodelFiltering": true,
    "fluentMethods": true,
    "clientRootFolder": "",
    "applications": "*"
}