{
    "name": "Carrier",
    "fields": [
        {
            "fieldName": "businessName",
            "fieldType": "String",
            "fieldValidateRules": [
                "required"
            ]
        },
        {
            "fieldName": "address",
            "fieldType": "String"
        },
        {
            "fieldName": "phone",
            "fieldType": "String"
        },
        {
            "fieldName": "contact",
            "fieldType": "String"
        },
        {
            "fieldName": "contactPhone",
            "fieldType": "String"
        }
    ],
    "relationships": [
        {
            "relationshipType": "one-to-many",
            "relationshipName": "idcarrier",
            "otherEntityName": "vehicle",
            "otherEntityRelationshipName": "carrier"
        }
    ],
    "changelogDate": "20180820153632",
    "entityTableName": "carrier",
    "dto": "no",
    "pagination": "no",
    "service": "serviceClass",
    "jpaMetamodelFiltering": true,
    "fluentMethods": true,
    "clientRootFolder": "",
    "applications": "*"
}