{
    "name": "Customer",
    "fields": [
        {
            "fieldName": "businessName",
            "fieldType": "String"
        },
        {
            "fieldName": "nit",
            "fieldType": "String"
        },
        {
            "fieldName": "email",
            "fieldType": "String"
        },
        {
            "fieldName": "address",
            "fieldType": "String"
        },
        {
            "fieldName": "phone",
            "fieldType": "String"
        },
        {
            "fieldName": "contact",
            "fieldType": "String"
        },
        {
            "fieldName": "contactPhone",
            "fieldType": "String"
        }
    ],
    "relationships": [
        {
            "relationshipType": "one-to-many",
            "relationshipValidateRules": "required",
            "relationshipName": "idcustomer",
            "otherEntityName": "materialQuarryCustomer",
            "otherEntityRelationshipName": "customer"
        }
    ],
    "changelogDate": "20180820153636",
    "entityTableName": "customer",
    "dto": "no",
    "pagination": "no",
    "service": "serviceClass",
    "jpaMetamodelFiltering": true,
    "fluentMethods": true,
    "clientRootFolder": "",
    "applications": "*"
}